<svg width="52" height="52" xmlns="http://www.w3.org/2000/svg">

 <g>
  <title>background</title>
  <rect fill="#ecebea" id="canvas_background" height="54" width="54" y="-1" x="-1"/>
 </g>
 <g>
  <title>Layer 1</title>
  <g id="svg_1" fill="#fff">
   <path fill="#000000" id="svg_2" d="m48.8,7.4l-4.2,-4.2c-1.6,-1.6 -4.1,-1.6 -5.6,0l-3.3,3.3c-0.4,0.4 -0.4,1 0,1.4l8.5,8.5c0.4,0.4 1,0.4 1.4,0l3.3,-3.3c1.5,-1.6 1.5,-4.1 -0.1,-5.7zm-15.9,3.3c-0.4,-0.4 -1,-0.4 -1.4,0l-26.1,26.1l-3.3,11.3c-0.3,1.1 0.7,2.2 1.8,1.9l11.4,-3.2l-0.1,0l26.1,-26.1c0.4,-0.4 0.4,-1 0,-1.4l-8.4,-8.6z"/>
  </g>
 </g>
</svg>