<svg width="60" height="55" xmlns="http://www.w3.org/2000/svg">

 <g>
  <title>background</title>
  <rect fill="#000000" id="canvas_background" height="57" width="62" y="-1" x="-1"/>
 </g>
 <g>
  <title>Layer 1</title>
  <g id="svg_1" fill="#fff">
   <path id="svg_2" d="m48.5,40l-27,0c-0.8,0 -1.5,0.7 -1.5,1.5l0,3c0,0.8 0.7,1.5 1.5,1.5l27,0c0.8,0 1.5,-0.7 1.5,-1.5l0,-3c0,-0.8 -0.7,-1.5 -1.5,-1.5zm-23.1,-18.2l-19.4,-15.5c-0.6,-0.5 -1.5,-0.4 -2,0.3l-1.7,2.4c-0.5,0.7 -0.3,1.6 0.3,2.1l13.8,11c0.5,0.4 0.5,1.2 0,1.6l-13.8,11c-0.6,0.5 -0.8,1.5 -0.3,2.1l1.7,2.6c0.5,0.7 1.4,0.8 2,0.3l19.4,-15.5c0.8,-0.6 0.8,-1.8 0,-2.4z"/>
  </g>
 </g>
</svg>